Gov 50 Final Project
…
Project thoughts

I am interested in potentially exploring data related to climate change, natural disaster relief (fires in Maui), and voter mobilization.

I am eager to investigate the relationship between government and economic policy in handling global crises related to climate change. The fires in Maui are an interest area for me, though I’m not sure enough data will be published yet.

If that doesn’t work out, I am also interested in analyzing what behavioral nudges are most effective to mobilize populations to vote, especially in under served communities.

library(tidyverse)
library(ggplot2)
fox <- read_csv("/Users/carolynburger/Desktop/Gov 50 Final Project /foxnews.csv")

fox 

# A tibble: 10,126 × 12
   state town       college1990 male1990 black1990 hisp1990 income1990
   <chr> <chr>            <dbl>    <dbl>     <dbl>    <dbl>      <dbl>
 1 Ak    Angoon          0.164     0.549   0        0.0171        3.21
 2 Ak    Barrow          0.183     0.527   0.00656  0.0211        5.67
 3 Ak    Bethel          0.219     0.522   0.00779  0.0170        4.22
 4 Ak    Cordova         0.175     0.544   0.00138  0.0313        4.63
 5 Ak    Craig           0.165     0.535   0        0.0309        4.72
 6 Ak    Dillingham      0.213     0.503   0        0.0118        4.41
 7 Ak    Eielson         0.145     0.555   0.116    0.0544        2.59
 8 Ak    Fairbanks       0.183     0.540   0.126    0.0484        3.20
 9 Ak    Galena          0.151     0.681   0.0371   0.00248       2.86
10 Ak    Gambell         0.0383    0.575   0        0             1.59
# ℹ 10,116 more rows
# ℹ 5 more variables: logincome1990 <dbl>, subrf2000 <dbl>,
#   gopvoteshare1992 <dbl>, gopvoteshare1996 <dbl>,
#   gopvoteshare2000 <dbl>
…
